[
	{ 
		"currentDone": { "done": 227700, "plan": 227700 },
		"futurePlan": { "prediction": 690000, "plan": 690000 }
	},
	{ 
		"currentDone": { "done": 56300, "plan": 56300 },
		"futurePlan": { "prediction": 334800, "plan": 334800 }
	},
	{ 
		"currentDone": { "done": 22450, "plan": 22450 },
		"futurePlan": { "prediction": 65100, "plan": 65100 }
	},
	{ 
		"currentDone": { "done": 67980, "plan": 67980 },
		"futurePlan": { "prediction": 105230, "plan": 105230 }
	}
]